{
  "customerId": "ecruz@avio.com",
  "cartTotal": 12.49,
  "items": [
    {
      "itemId": 10,
      "quantity": 1,
      "price": 2.35
    },
    {
      "itemId": 11,
      "quantity": 2,
      "price": 1.20
    },
    {
      "itemId": 12,
      "quantity": 2,
      "price": 2.62
    },
    {
      "itemId": 13,
      "quantity": 1,
      "price": 2.50
    }
  ]
}
